<?xml version="1.0" encoding="utf-8"?>
<!-- Generator: Adobe Illustrator 18.1.1, SVG Export Plug-In . SVG Version: 6.00 Build 0)  -->
<svg version="1.1" id="Icons" xmlns="http://www.w3.org/2000/svg" xmlns:xlink="http://www.w3.org/1999/xlink" x="0px" y="0px"
	 viewBox="0 0 31.4 31.4" enable-background="new 0 0 31.4 31.4" xml:space="preserve">
<g>
	<polygon fill="#4DFFBA" points="15.4,31.4 0,16 13.7,2.3 15.1,3.7 2.8,16 15.4,28.6 27.7,16.3 29.1,17.7 	"/>
	<polygon fill="#4DFFBA" points="31.4,15 29.4,15 29.4,2 16.4,2 16.4,0 31.4,0 	"/>
	<g>
		<path fill="#4DFFBA" d="M21.4,15L21.4,15c-2.8,0-5-2.3-5-5c0-2.7,2.3-5,5-5c2.8,0,5,2.3,5,5C26.4,12.8,24.2,15,21.4,15z M21.4,7
			c-1.7,0-3,1.3-3,3c0,1.7,1.3,3,3,3l0,1v-1c1.6,0,3-1.3,3-3C24.4,8.4,23.1,7,21.4,7z"/>
	</g>
</g>
</svg>
