<?xml version="1.0" encoding="utf-8"?>
<!-- Generator: Adobe Illustrator 18.1.1, SVG Export Plug-In . SVG Version: 6.00 Build 0)  -->
<svg version="1.1" id="Icons" xmlns="http://www.w3.org/2000/svg" xmlns:xlink="http://www.w3.org/1999/xlink" x="0px" y="0px"
	 viewBox="0 0 30.2 26.2" enable-background="new 0 0 30.2 26.2" xml:space="preserve">
<g>
	<path fill="#4DFFBA" d="M15.1,16.3L0,8.1L15.1,0l15.1,8.1L15.1,16.3z M4.2,8.1L15.1,14L26,8.1L15.1,2.3L4.2,8.1z"/>
	<polygon fill="#4DFFBA" points="15.1,21.1 0.7,14 1.5,12.2 15.1,18.9 28.7,12.2 29.5,14 	"/>
	<polygon fill="#4DFFBA" points="15.1,26.2 0.7,19.2 1.5,17.4 15.1,24 28.7,17.4 29.5,19.2 	"/>
	<path fill="none" stroke="#4DFFBA" stroke-width="2" stroke-miterlimit="10" d="M26.1,19.6"/>
	<path fill="none" stroke="#4DFFBA" stroke-width="2" stroke-miterlimit="10" d="M26.1,25.6"/>
</g>
</svg>
