<?xml version="1.0" encoding="utf-8"?>
<!-- Generator: Adobe Illustrator 18.1.1, SVG Export Plug-In . SVG Version: 6.00 Build 0)  -->
<svg version="1.1" id="Layer_1" xmlns="http://www.w3.org/2000/svg" xmlns:xlink="http://www.w3.org/1999/xlink" x="0px" y="0px"
	 viewBox="0 0 33.1 32.7" enable-background="new 0 0 33.1 32.7" xml:space="preserve">
<g>
	<polygon fill="#4DFFBA" points="22.6,24.1 15.1,16.8 15.1,6.2 18.1,6.2 18.1,15.5 24.7,22 	"/>
	<g>
		<path fill="#4DFFBA" d="M16.6,32.7c-4.3,0-8.5-1.6-11.7-4.8l2.1-2.1c4.5,4.5,11.7,5.2,17,1.7l1.7,2.5
			C22.9,31.8,19.8,32.7,16.6,32.7z"/>
		<path fill="#4DFFBA" d="M30.4,25.3l-2.5-1.7c3.5-5.3,2.8-12.5-1.7-17l2.1-2.1C33.8,10,34.7,18.8,30.4,25.3z"/>
	</g>
	<g>
		<path fill="#4DFFBA" d="M33.1,16.2h-3c0-6.4-4.6-12-10.9-13.2L19.8,0C27.5,1.6,33.1,8.4,33.1,16.2z"/>
		<path fill="#4DFFBA" d="M16.5,32.7C7.4,32.7,0,25.3,0,16.2C0,8.4,5.6,1.6,13.2,0l0.6,2.9C7.5,4.2,3,9.8,3,16.2
			c0,7.4,6.1,13.5,13.5,13.5V32.7z"/>
	</g>
</g>
</svg>
